{
    "fullName": "Matheus Amancio Miranda",
    "age": 24,
    "rightHanded": true,
    "course": "Engenharia Civil",
    "skills": [
        {
            "name": "Python",
            "comment": "Linguagem de programação",
            "rate": 9
        },
        {
            "name": "JavaScript",
            "comment": "Linguagem de programação",
            "rate": 9
        },
        {
            "name": "ReactJS",
            "comment": "Biblioteca da linguagem JavaScript",
            "rate": 8
        }
    ]
}